{
    "minVersion": "0.8",
    "compatibilityLevel": "JAVA_8",
    "required": true,
    "target": "@env(DEFAULT)",
    "package": "ru.will0376.dnomod.mixin",
    "refmap": "${mixin_refmap}",
    "injectors": {
        "defaultRequire": 1
    },
    "mixins": [
    ],
    "client": [
        "EntityCowMixin"
    ],
    "server": [
    ]
}